Anomaly Detection - EDA Assignment II (Mortgage Default)
…
Also reflective of our initial correlation analysis, loan term being a variable with a very high positive correlation with Loan default, the plot shows the highest incidents of loan term are concentrated highly on the longest loan terms

3. Analysis of PA023 (Days b/w application & 1st collection call)

df23 <- getfreq(train,"PA023")
df23

## # A tibble: 159 x 5
##    PA023 X_counts Y_counts Y_by_X_pcnt  X_pcnt
##    <dbl>    <int>    <int>       <dbl>   <dbl>
##  1     0    40620     7147       0.176 0.725  
##  2     1      118       33       0.280 0.00211
##  3     2      108       27       0.25  0.00193
##  4     3      101       22       0.218 0.00180
##  5     4       89       14       0.157 0.00159
##  6     5       99       22       0.222 0.00177
##  7     6      103       26       0.252 0.00184
##  8     7      103       21       0.204 0.00184
##  9     8      102       26       0.255 0.00182
## 10     9       86       21       0.244 0.00154
## # ... with 149 more rows
…
The variable Application city was chosen to see if it had some relation to the loan default based on the city loan is applied. By looking at the plot App City variable does not seem to have major relationship with loan default though it shows some variation. So, we would leave to the variable selction methods to decide if it needs to be part of the final model.

9. Analysis of PA022 (Days b/w application & High risk 1st collection call)

df22 <- getfreq(train,"PA022")
df22

## # A tibble: 164 x 5
##    PA022 X_counts Y_counts Y_by_X_pcnt  X_pcnt
##    <dbl>    <int>    <int>       <dbl>   <dbl>
##  1     0    36856     6325       0.172 0.658  
##  2     1      141       44       0.312 0.00252
##  3     2      143       29       0.203 0.00255
##  4     3      120       26       0.217 0.00214
##  5     4      105       17       0.162 0.00188
##  6     5      117       28       0.239 0.00209
##  7     6      135       37       0.274 0.00241
##  8     7      118       29       0.246 0.00211
##  9     8      121       29       0.240 0.00216
## 10     9      116       30       0.259 0.00207
## # ... with 154 more rows
…
The High risk collection call is usually made when the loanee has prolonged his loan payment for a long time. Such loanees could fall under higher probability of defaulters. The plot shows some significant peaks on the higher side of the number of days between loan application and high risk collection call as expected. This could possibly be a significant variable.

10. Analysis of AP001 (Age)

df01 <- getfreq(train,"AP001")
df01

## # A tibble: 37 x 5
##    AP001 X_counts Y_counts Y_by_X_pcnt  X_pcnt
##    <int>    <int>    <int>       <dbl>   <dbl>
##  1    20       78       15       0.192 0.00139
##  2    21      434      109       0.251 0.00775
##  3    22     1128      226       0.200 0.0201 
##  4    23     2051      407       0.198 0.0366 
##  5    24     3070      613       0.200 0.0548 
##  6    25     3397      696       0.205 0.0607 
##  7    26     3802      763       0.201 0.0679 
##  8    27     4359      953       0.219 0.0778 
##  9    28     4174      859       0.206 0.0745 
## 10    29     3569      705       0.198 0.0637 
## # ... with 27 more rows
…
There is a general stigma that people on the higher side of age may not have the capacity to repay loans. However, our initial correlation analysis showed that age was not among the variables with high correlation with loan defaults. The plot shows a slightly high frequency at the late 20s number but we will need further feature selection analysis to check if Age considered to be a significant variable.

11. Analysis of CD160 (Count of Service calls_last 2 months)

df160 <- getfreq(train,"CD160")
df160

## # A tibble: 232 x 5
##    CD160 X_counts Y_counts Y_by_X_pcnt X_pcnt
##    <dbl>    <int>    <int>       <dbl>  <dbl>
##  1     0     7198     1203       0.167 0.129 
##  2     1     3837      677       0.176 0.0685
##  3     2     3678      690       0.188 0.0657
##  4     3     3530      658       0.186 0.0630
##  5     4     3346      567       0.169 0.0598
##  6     5     3021      563       0.186 0.0539
##  7     6     2815      520       0.185 0.0503
##  8     7     2922      591       0.202 0.0522
##  9     8     2330      455       0.195 0.0416
## 10     9     2143      409       0.191 0.0383
## # ... with 222 more rows
…
The count of service calls in the last 2 months was chosen to see if there are any significant relation with the loan default and the plot seems to convey that the occurence of defaults are more likely when the values go higher than 100.

12. Analysis of CD162 (Count of Service calls_last 3 months)

df162 <- getfreq(train,"CD162")
df162

## # A tibble: 331 x 5
##    CD162 X_counts Y_counts Y_by_X_pcnt X_pcnt
##    <dbl>    <int>    <int>       <dbl>  <dbl>
##  1     0     4017      700       0.174 0.0717
##  2     1     1805      297       0.165 0.0322
##  3     2     2036      348       0.171 0.0364
##  4     3     2271      415       0.183 0.0406
##  5     4     2278      383       0.168 0.0407
##  6     5     2248      403       0.179 0.0401
##  7     6     2180      396       0.182 0.0389
##  8     7     2197      383       0.174 0.0392
##  9     8     2148      373       0.174 0.0384
## 10     9     2054      384       0.187 0.0367
## # ... with 321 more rows
…
Similarly, the occurences of loan default seem to increase with the increase in count of service calls in the last 3 months.

13. Analysis of CD164 (Count of Service outbound calls_last 3 months)

df164 <- getfreq(train,"CD164")
df164

## # A tibble: 283 x 5
##    CD164 X_counts Y_counts Y_by_X_pcnt X_pcnt
##    <dbl>    <int>    <int>       <dbl>  <dbl>
##  1     0     5210      893       0.171 0.0930
##  2     1     2500      397       0.159 0.0446
##  3     2     2618      450       0.172 0.0468
##  4     3     2668      498       0.187 0.0476
##  5     4     2575      452       0.176 0.0460
##  6     5     2492      456       0.183 0.0445
##  7     6     2363      409       0.173 0.0422
##  8     7     2347      405       0.173 0.0419
##  9     8     2172      403       0.186 0.0388
## 10     9     2070      418       0.202 0.0370
## # ... with 273 more rows
…
Also, the occurences of loan default seem to increase with the increase in count of service outbound calls in the last 3 months

14. Analysis of TD006 (Count of Small loan queries_last 1 month)

df006 <- getfreq(train,"TD006")
df006

## # A tibble: 21 x 5
##    TD006 X_counts Y_counts Y_by_X_pcnt  X_pcnt
##    <int>    <int>    <int>       <dbl>   <dbl>
##  1     0    16297     2765       0.170 0.291  
##  2     1    20342     3630       0.178 0.363  
##  3     2    10838     2255       0.208 0.194  
##  4     3     4731     1155       0.244 0.0845 
##  5     4     1967      524       0.266 0.0351 
##  6     5      888      255       0.287 0.0159 
##  7     6      442      147       0.333 0.00789
##  8     7      201       58       0.289 0.00359
##  9     8      106       36       0.340 0.00189
## 10     9       73       32       0.438 0.00130
## # ... with 11 more rows
…
15. Analysis of TD010 (Count of Small loan queries_last 3 months)

df010 <- getfreq(train,"TD010")
df010

## # A tibble: 29 x 5
##    TD010 X_counts Y_counts Y_by_X_pcnt  X_pcnt
##    <int>    <int>    <int>       <dbl>   <dbl>
##  1     0    10708     1656       0.155 0.191  
##  2     1    16434     2729       0.166 0.293  
##  3     2    12214     2351       0.192 0.218  
##  4     3     7374     1635       0.222 0.132  
##  5     4     4075     1013       0.249 0.0728 
##  6     5     2256      618       0.274 0.0403 
##  7     6     1258      349       0.277 0.0225 
##  8     7      663      199       0.300 0.0118 
##  9     8      360      105       0.292 0.00643
## 10     9      205       73       0.356 0.00366
## # ... with 19 more rows
…
